---
http_interactions:
- request:
    method: get
    uri: https://api.themoviedb.org/3/movie/top_rated?api_key=<API Key>&page=1
    body:
      encoding: US-ASCII
      string: ''
    headers:
      User-Agent:
      - Faraday v2.7.4
      Accept-Encoding:
      - gzip;q=1.0,deflate;q=0.6,identity;q=0.3
      Accept:
      - "*/*"
  response:
    status:
      code: 200
      message: OK
    headers:
      Content-Type:
      - application/json;charset=utf-8
      Transfer-Encoding:
      - chunked
      Connection:
      - keep-alive
      Date:
      - Thu, 16 Feb 2023 21:02:57 GMT
      Server:
      - openresty
      Cache-Control:
      - public, max-age=21600
      Vary:
      - Accept-Encoding,Accept-Encoding
      - Origin
      X-Cache:
      - Hit from cloudfront
      Via:
      - 1.1 61ff1927788a811372346b5470412a78.cloudfront.net (CloudFront)
      X-Amz-Cf-Pop:
      - DEN52-P2
      Alt-Svc:
      - h3=":443"; ma=86400
      X-Amz-Cf-Id:
      - z1lbmGDIcs6e7k0TuZNQCHB-_1w1xNJWKgnGURvaARwjf7Ebgbw8-A==
      Age:
      - '14725'
    body:
      encoding: UTF-8
      string: '{"page":1,"results":[{"adult":false,"backdrop_path":"/ejniJnlOdtSgtbh8D7u2RxT6Uli.jpg","genre_ids":[35,14],"id":772071,"original_language":"es","original_title":"Cuando
        Sea Joven","overview":"70-year-old Malena gets a second chance at life when
        she magically turns into her 22-year-old self. Now, posing as \"Maria\" to
        hide her true identity, she becomes the lead singer of her grandson''s band
        and tries to recover her dream of singing, which she had to give up at some
        point.","popularity":57.479,"poster_path":"/6gIJuFHh5Lj4dNaPG3TzIMl7L68.jpg","release_date":"2022-09-14","title":"Cuando
        Sea Joven","video":false,"vote_average":8.8,"vote_count":203},{"adult":false,"backdrop_path":"/tmU7GeKVybMWFButWEGl2M4GeiP.jpg","genre_ids":[18,80],"id":238,"original_language":"en","original_title":"The
        Godfather","overview":"Spanning the years 1945 to 1955, a chronicle of the
        fictional Italian-American Corleone crime family. When organized crime family
        patriarch, Vito Corleone barely survives an attempt on his life, his youngest
        son, Michael steps in to take care of the would-be killers, launching a campaign
        of bloody revenge.","popularity":89.311,"poster_path":"/3bhkrj58Vtu7enYsRolD1fZdja1.jpg","release_date":"1972-03-14","title":"The
        Godfather","video":false,"vote_average":8.7,"vote_count":17470},{"adult":false,"backdrop_path":"/wPU78OPN4BYEgWYdXyg0phMee64.jpg","genre_ids":[18,80],"id":278,"original_language":"en","original_title":"The
        Shawshank Redemption","overview":"Framed in the 1940s for the double murder
        of his wife and her lover, upstanding banker Andy Dufresne begins a new life
        at the Shawshank prison, where he puts his accounting skills to work for an
        amoral warden. During his long stretch in prison, Dufresne comes to be admired
        by the other inmates -- including an older prisoner named Red -- for his integrity
        and unquenchable sense of hope.","popularity":74.349,"poster_path":"/hBcY0fE9pfXzvVaY4GKarweriG2.jpg","release_date":"1994-09-23","title":"The
        Shawshank Redemption","video":false,"vote_average":8.7,"vote_count":23281},{"adult":false,"backdrop_path":"/wxaBkuqVIgImjRHEMJoxL9Lq6i8.jpg","genre_ids":[16,10751,12,14],"id":995133,"original_language":"en","original_title":"The
        Boy, the Mole, the Fox and the Horse","overview":"The unlikely friendship
        of a boy, a mole, a fox and a horse traveling together in the boy’s search
        for home.","popularity":41.601,"poster_path":"/oQRgyQCzcyZvE6w5heM9ktVY0LT.jpg","release_date":"2022-12-25","title":"The
        Boy, the Mole, the Fox and the Horse","video":false,"vote_average":8.7,"vote_count":219},{"adult":false,"backdrop_path":"/kGzFbGhp99zva6oZODW5atUtnqi.jpg","genre_ids":[18,80],"id":240,"original_language":"en","original_title":"The
        Godfather Part II","overview":"In the continuing saga of the Corleone crime
        family, a young Vito Corleone grows up in Sicily and in 1910s New York. In
        the 1950s, Michael Corleone attempts to expand the family business into Las
        Vegas, Hollywood and Cuba.","popularity":51.958,"poster_path":"/hek3koDUyRQk7FIhPXsa6mT2Zc3.jpg","release_date":"1974-12-20","title":"The
        Godfather Part II","video":false,"vote_average":8.6,"vote_count":10576},{"adult":false,"backdrop_path":"/zb6fM1CX41D9rF9hdgclu0peUmy.jpg","genre_ids":[18,36,10752],"id":424,"original_language":"en","original_title":"Schindler''s
        List","overview":"The true story of how businessman Oskar Schindler saved
        over a thousand Jewish lives from the Nazis while they worked as slaves in
        his factory during World War II.","popularity":48.388,"poster_path":"/sF1U4EUQS8YHUYjNl3pMGNIQyr0.jpg","release_date":"1993-12-15","title":"Schindler''s
        List","video":false,"vote_average":8.6,"vote_count":13760},{"adult":false,"backdrop_path":"/vI3aUGTuRRdM7J78KIdW98LdxE5.jpg","genre_ids":[35,18,10749],"id":19404,"original_language":"hi","original_title":"दिलवाले
        दुल्हनिया ले जायेंगे","overview":"Raj is a rich, carefree, happy-go-lucky
        second generation NRI. Simran is the daughter of Chaudhary Baldev Singh, who
        in spite of being an NRI is very strict about adherence to Indian values.
        Simran has left for India to be married to her childhood fiancé. Raj leaves
        for India with a mission at his hands, to claim his lady love under the noses
        of her whole family. Thus begins a saga.","popularity":25.183,"poster_path":"/2CAL2433ZeIihfX1Hb2139CX0pW.jpg","release_date":"1995-10-19","title":"Dilwale
        Dulhania Le Jayenge","video":false,"vote_average":8.6,"vote_count":4059},{"adult":false,"backdrop_path":"/Ab8mkHmkYADjU7wQiOkia9BzGvS.jpg","genre_ids":[16,10751,14],"id":129,"original_language":"ja","original_title":"千と千尋の神隠し","overview":"A
        young girl, Chihiro, becomes trapped in a strange new world of spirits. When
        her parents undergo a mysterious transformation, she must call upon the courage
        she never knew she had to free her family.","popularity":68.082,"poster_path":"/39wmItIWsg5sZMyRUHLkWBcuVCM.jpg","release_date":"2002-09-20","title":"Spirited
        Away","video":false,"vote_average":8.5,"vote_count":13953},{"adult":false,"backdrop_path":"/qqHQsStV6exghCM7zbObuYBiYxw.jpg","genre_ids":[18],"id":389,"original_language":"en","original_title":"12
        Angry Men","overview":"The defense and the prosecution have rested and the
        jury is filing into the jury room to decide if a young Spanish-American is
        guilty or innocent of murdering his father. What begins as an open and shut
        case soon becomes a mini-drama of each of the jurors'' prejudices and preconceptions
        about the trial, the accused, and each other.","popularity":38.466,"poster_path":"/ppd84D2i9W8jXmsyInGyihiSyqz.jpg","release_date":"1957-04-10","title":"12
        Angry Men","video":false,"vote_average":8.5,"vote_count":7045},{"adult":false,"backdrop_path":"/dIWwZW7dJJtqC6CgWzYkNVKIUm8.jpg","genre_ids":[10749,16,18],"id":372058,"original_language":"ja","original_title":"君の名は。","overview":"High
        schoolers Mitsuha and Taki are complete strangers living separate lives. But
        one night, they suddenly switch places. Mitsuha wakes up in Taki’s body, and
        he in hers. This bizarre occurrence continues to happen randomly, and the
        two must adjust their lives around each other.","popularity":87.762,"poster_path":"/q719jXXEzOoYaps6babgKnONONX.jpg","release_date":"2016-08-26","title":"Your
        Name.","video":false,"vote_average":8.5,"vote_count":9507},{"adult":false,"backdrop_path":"/hiKmpZMGZsrkA3cdce8a7Dpos1j.jpg","genre_ids":[35,53,18],"id":496243,"original_language":"ko","original_title":"기생충","overview":"All
        unemployed, Ki-taek''s family takes peculiar interest in the wealthy and glamorous
        Parks for their livelihood until they get entangled in an unexpected incident.","popularity":60.773,"poster_path":"/7IiTTgloJzvGI1TAYymCfbfl3vT.jpg","release_date":"2019-05-30","title":"Parasite","video":false,"vote_average":8.5,"vote_count":15247},{"adult":false,"backdrop_path":"/l6hQWH9eDksNJNiXWYRkWqikOdu.jpg","genre_ids":[14,18,80],"id":497,"original_language":"en","original_title":"The
        Green Mile","overview":"A supernatural tale set on death row in a Southern
        prison, where gentle giant John Coffey possesses the mysterious power to heal
        people''s ailments. When the cell block''s head guard, Paul Edgecomb, recognizes
        Coffey''s miraculous gift, he tries desperately to help stave off the condemned
        man''s execution.","popularity":84.526,"poster_path":"/velWPhVMQeQKcxggNEU8YmIo52R.jpg","release_date":"1999-12-10","title":"The
        Green Mile","video":false,"vote_average":8.5,"vote_count":15044},{"adult":false,"backdrop_path":"/pbEkjhdfP7yuDcMB78YEZwgD4IN.jpg","genre_ids":[18,28,80,53],"id":155,"original_language":"en","original_title":"The
        Dark Knight","overview":"Batman raises the stakes in his war on crime. With
        the help of Lt. Jim Gordon and District Attorney Harvey Dent, Batman sets
        out to dismantle the remaining criminal organizations that plague the streets.
        The partnership proves to be effective, but they soon find themselves prey
        to a reign of chaos unleashed by a rising criminal mastermind known to the
        terrified citizens of Gotham as the Joker.","popularity":85.276,"poster_path":"/qJ2tW6WMUDux911r6m7haRef0WH.jpg","release_date":"2008-07-14","title":"The
        Dark Knight","video":false,"vote_average":8.5,"vote_count":29182},{"adult":false,"backdrop_path":"/tGwO4xcBjhXC0p5qlkw37TrH6S6.jpg","genre_ids":[16,12,35,10751,14],"id":315162,"original_language":"en","original_title":"Puss
        in Boots: The Last Wish","overview":"Puss in Boots discovers that his passion
        for adventure has taken its toll: He has burned through eight of his nine
        lives, leaving him with only one life left. Puss sets out on an epic journey
        to find the mythical Last Wish and restore his nine lives.","popularity":2746.198,"poster_path":"/kuf6dutpsT0vSVehic3EZIqkOBt.jpg","release_date":"2022-12-07","title":"Puss
        in Boots: The Last Wish","video":false,"vote_average":8.5,"vote_count":3689},{"adult":false,"backdrop_path":"/suaEOtk1N1sgg2MTM7oZd2cfVp3.jpg","genre_ids":[53,80],"id":680,"original_language":"en","original_title":"Pulp
        Fiction","overview":"A burger-loving hit man, his philosophical partner, a
        drug-addled gangster''s moll and a washed-up boxer converge in this sprawling,
        comedic crime caper. Their adventures unfurl in three stories that ingeniously
        trip back and forth in time.","popularity":56.202,"poster_path":"/d5iIlFn5s0ImszYzBPb8JPIfbXD.jpg","release_date":"1994-09-10","title":"Pulp
        Fiction","video":false,"vote_average":8.5,"vote_count":24663},{"adult":false,"backdrop_path":"/eoCSp75lxatmIa6aGqfnzwtbttd.jpg","genre_ids":[37],"id":429,"original_language":"it","original_title":"Il
        buono, il brutto, il cattivo","overview":"While the Civil War rages on between
        the Union and the Confederacy, three men – a quiet loner, a ruthless hitman,
        and a Mexican bandit – comb the American Southwest in search of a strongbox
        containing $200,000 in stolen gold.","popularity":55.65,"poster_path":"/bX2xnavhMYjWDoZp1VM6VnU1xwe.jpg","release_date":"1966-12-23","title":"The
        Good, the Bad and the Ugly","video":false,"vote_average":8.5,"vote_count":7205},{"adult":false,"backdrop_path":"/3h1JZGDhZ8nzxdgvkxha0qBqi05.jpg","genre_ids":[35,18,10749],"id":13,"original_language":"en","original_title":"Forrest
        Gump","overview":"A man with a low IQ has accomplished great things in his
        life and been present during significant historic events—in each case, far
        exceeding what anyone imagined he could do. But despite all he has achieved,
        his one true love eludes him.","popularity":63.89,"poster_path":"/arw2vcBveWOVZr6pxd9XTd1TdQa.jpg","release_date":"1994-06-23","title":"Forrest
        Gump","video":false,"vote_average":8.5,"vote_count":24149},{"adult":false,"backdrop_path":"/3RMLbSEXOn1CzLoNT7xFeLfdxhq.jpg","genre_ids":[10749,16],"id":372754,"original_language":"ja","original_title":"同級生","overview":"Rihito
        Sajo, an honor student with a perfect score on the entrance exam and Hikaru
        Kusakabe, in a band and popular among girls, would have never crossed paths.
        Until one day they started talking at the practice for their school’s upcoming
        chorus festival. After school, the two meet regularly, as Hikaru helps Rihito
        to improve his singing skills. While they listen to each other’s voice and
        harmonize, their hearts start to beat together.","popularity":10.817,"poster_path":"/cIfRCA5wEvj9tApca4UDUagQEiM.jpg","release_date":"2016-02-20","title":"Dou
        kyu sei – Classmates","video":false,"vote_average":8.5,"vote_count":290},{"adult":false,"backdrop_path":"/lXhgCODAbBXL5buk9yEmTpOoOgR.jpg","genre_ids":[12,14,28],"id":122,"original_language":"en","original_title":"The
        Lord of the Rings: The Return of the King","overview":"Aragorn is revealed
        as the heir to the ancient kings as he, Gandalf and the other members of the
        broken fellowship struggle to save Gondor from Sauron''s forces. Meanwhile,
        Frodo and Sam take the ring closer to the heart of Mordor, the dark lord''s
        realm.","popularity":84.199,"poster_path":"/rCzpDGLbOoPwLjy3OAm5NUPOTrC.jpg","release_date":"2003-12-01","title":"The
        Lord of the Rings: The Return of the King","video":false,"vote_average":8.5,"vote_count":21142},{"adult":false,"backdrop_path":"/w2uGvCpMtvRqZg6waC1hvLyZoJa.jpg","genre_ids":[10749],"id":696374,"original_language":"en","original_title":"Gabriel''s
        Inferno","overview":"An intriguing and sinful exploration of seduction, forbidden
        love, and redemption, Gabriel''s Inferno is a captivating and wildly passionate
        tale of one man''s escape from his own personal hell as he tries to earn the
        impossible--forgiveness and love.","popularity":12.544,"poster_path":"/oyG9TL7FcRP4EZ9Vid6uKzwdndz.jpg","release_date":"2020-05-29","title":"Gabriel''s
        Inferno","video":false,"vote_average":8.5,"vote_count":2325}],"total_pages":541,"total_results":10803}'
  recorded_at: Fri, 17 Feb 2023 01:08:22 GMT
- request:
    method: get
    uri: https://api.themoviedb.org/3/movie/top_rated?api_key=<API Key>&page=2
    body:
      encoding: US-ASCII
      string: ''
    headers:
      User-Agent:
      - Faraday v2.7.4
      Accept-Encoding:
      - gzip;q=1.0,deflate;q=0.6,identity;q=0.3
      Accept:
      - "*/*"
  response:
    status:
      code: 200
      message: OK
    headers:
      Content-Type:
      - application/json;charset=utf-8
      Transfer-Encoding:
      - chunked
      Connection:
      - keep-alive
      Date:
      - Thu, 16 Feb 2023 21:02:57 GMT
      Server:
      - openresty
      Cache-Control:
      - public, max-age=21600
      Vary:
      - Accept-Encoding,Accept-Encoding
      - Origin
      X-Cache:
      - Hit from cloudfront
      Via:
      - 1.1 a7c0ba01db75946f7df3f7eaf69984b6.cloudfront.net (CloudFront)
      X-Amz-Cf-Pop:
      - DEN52-P2
      Alt-Svc:
      - h3=":443"; ma=86400
      X-Amz-Cf-Id:
      - kHvoKmZ0Vi9mc87Sxx-Wiv1TUKkSa4N8Ptymcp640fgYHIX53wiq5A==
      Age:
      - '14725'
    body:
      encoding: UTF-8
      string: '{"page":2,"results":[{"adult":false,"backdrop_path":"/sw7mordbZxgITU877yTpZCud90M.jpg","genre_ids":[18,80],"id":769,"original_language":"en","original_title":"GoodFellas","overview":"The
        true story of Henry Hill, a half-Irish, half-Sicilian Brooklyn kid who is
        adopted by neighbourhood gangsters at an early age and climbs the ranks of
        a Mafia family under the guidance of Jimmy Conway.","popularity":40.958,"poster_path":"/aKuFiU82s5ISJpGZp7YkIr3kCUd.jpg","release_date":"1990-09-12","title":"GoodFellas","video":false,"vote_average":8.5,"vote_count":10984},{"adult":false,"backdrop_path":"/uBZQOYZLIU9dBmd62fdzBAoropu.jpg","genre_ids":[28,12,16,18],"id":704264,"original_language":"en","original_title":"Primal:
        Tales of Savagery","overview":"Genndy Tartakovsky''s Primal: Tales of Savagery
        features a caveman and a dinosaur on the brink of extinction. Bonded by tragedy,
        this unlikely friendship becomes the only hope of survival.","popularity":19.013,"poster_path":"/9NBBkdxH0TjQEBSN2AzeE1sgsF9.jpg","release_date":"2019-11-21","title":"Primal:
        Tales of Savagery","video":false,"vote_average":8.5,"vote_count":257},{"adult":false,"backdrop_path":"/zoVeIgKzGJzpdG6Gwnr7iOYfIMU.jpg","genre_ids":[18,10749],"id":11216,"original_language":"it","original_title":"Nuovo
        Cinema Paradiso","overview":"A filmmaker recalls his childhood, when he fell
        in love with the movies at his village''s theater and formed a deep friendship
        with the theater''s projectionist.","popularity":20.706,"poster_path":"/8SRUfRUi6x4O68n0VCbDNRa6iGL.jpg","release_date":"1988-11-17","title":"Cinema
        Paradiso","video":false,"vote_average":8.5,"vote_count":3644},{"adult":false,"backdrop_path":"/qvZ91FwMq6O47VViAr8vZNQz3WI.jpg","genre_ids":[28,18],"id":346,"original_language":"ja","original_title":"七人の侍","overview":"A
        samurai answers a village''s request for protection after he falls on hard
        times. The town needs protection from bandits, so the samurai gathers six
        others to help him teach the people how to defend themselves, and the villagers
        provide the soldiers with food.","popularity":25.87,"poster_path":"/iAq0sq42vKTLneVGqHn1D4GzgrM.jpg","release_date":"1954-04-26","title":"Seven
        Samurai","video":false,"vote_average":8.5,"vote_count":2949},{"adult":false,"backdrop_path":"/gavyCu1UaTaTNPsVaGXT6pe5u24.jpg","genre_ids":[35,18],"id":637,"original_language":"it","original_title":"La
        vita è bella","overview":"A touching story of an Italian book seller of Jewish
        ancestry who lives in his own little fairy tale. His creative and happy life
        would come to an abrupt halt when his entire family is deported to a concentration
        camp during World War II. While locked up he tries to convince his son that
        the whole thing is just a game.","popularity":40.416,"poster_path":"/mfnkSeeVOBVheuyn2lo4tfmOPQb.jpg","release_date":"1997-12-20","title":"Life
        Is Beautiful","video":false,"vote_average":8.5,"vote_count":11705},{"adult":false,"backdrop_path":"/jtAI6OJIWLWiRItNSZoWjrsUtmi.jpg","genre_ids":[10749],"id":724089,"original_language":"en","original_title":"Gabriel''s
        Inferno: Part II","overview":"Professor Gabriel Emerson finally learns the
        truth about Julia Mitchell''s identity, but his realization comes a moment
        too late. Julia is done waiting for the well-respected Dante specialist to
        remember her and wants nothing more to do with him. Can Gabriel win back her
        heart before she finds love in another''s arms?","popularity":13.543,"poster_path":"/x5o8cLZfEXMoZczTYWLrUo1P7UJ.jpg","release_date":"2020-07-31","title":"Gabriel''s
        Inferno: Part II","video":false,"vote_average":8.4,"vote_count":1463},{"adult":false,"backdrop_path":"/gwj4R8Uy1GwejKqfofREKI9Jh7L.jpg","genre_ids":[16,18,10752],"id":12477,"original_language":"ja","original_title":"火垂るの墓","overview":"In
        the final months of World War II, 14-year-old Seita and his sister Setsuko
        are orphaned when their mother is killed during an air raid in Kobe, Japan.
        After a falling out with their aunt, they move into an abandoned bomb shelter.
        With no surviving relatives and their emergency rations depleted, Seita and
        Setsuko struggle to survive.","popularity":0.6,"poster_path":"/k9tv1rXZbOhH7eiCk378x61kNQ1.jpg","release_date":"1988-04-16","title":"Grave
        of the Fireflies","video":false,"vote_average":8.4,"vote_count":4509},{"adult":false,"backdrop_path":"/uPYa165sraN2c8gZBM9C47g3JoU.jpg","genre_ids":[18,80],"id":311,"original_language":"en","original_title":"Once
        Upon a Time in America","overview":"A former Prohibition-era Jewish gangster
        returns to the Lower East Side of Manhattan over thirty years later, where
        he once again must confront the ghosts and regrets of his old life.","popularity":33.363,"poster_path":"/i0enkzsL5dPeneWnjl1fCWm6L7k.jpg","release_date":"1984-05-23","title":"Once
        Upon a Time in America","video":false,"vote_average":8.4,"vote_count":4566},{"adult":false,"backdrop_path":"/uif5fUshJrXyyDzfpzp1DLw3N0S.jpg","genre_ids":[27,18,53],"id":539,"original_language":"en","original_title":"Psycho","overview":"When
        larcenous real estate clerk Marion Crane goes on the lam with a wad of cash
        and hopes of starting a new life, she ends up at the notorious Bates Motel,
        where manager Norman Bates cares for his housebound mother.","popularity":36.416,"poster_path":"/yz4QVqPx3h1hD1DfqqQkCq3rmxW.jpg","release_date":"1960-06-22","title":"Psycho","video":false,"vote_average":8.4,"vote_count":8779},{"adult":false,"backdrop_path":"/hZkgoQYus5vegHoetLkCJzb17zJ.jpg","genre_ids":[18,53,35],"id":550,"original_language":"en","original_title":"Fight
        Club","overview":"A ticking-time-bomb insomniac and a slippery soap salesman
        channel primal male aggression into a shocking new form of therapy. Their
        concept catches on, with underground \"fight clubs\" forming in every town,
        until an eccentric gets in the way and ignites an out-of-control spiral toward
        oblivion.","popularity":75.787,"poster_path":"/pB8BM7pdSp6B6Ih7QZ4DrQ3PmJK.jpg","release_date":"1999-10-15","title":"Fight
        Club","video":false,"vote_average":8.4,"vote_count":25822},{"adult":false,"backdrop_path":"/fQq1FWp1rC89xDrRMuyFJdFUdMd.jpg","genre_ids":[10749,35],"id":761053,"original_language":"en","original_title":"Gabriel''s
        Inferno: Part III","overview":"The final part of the film adaption of the
        erotic romance novel Gabriel''s Inferno written by an anonymous Canadian author
        under the pen name Sylvain Reynard.","popularity":19.631,"poster_path":"/fYtHxTxlhzD4QWfEbrC1rypysSD.jpg","release_date":"2020-11-19","title":"Gabriel''s
        Inferno: Part III","video":false,"vote_average":8.4,"vote_count":1011},{"adult":false,"backdrop_path":"/qUq3QTr2KLvGIcN0GaaaYx9bbyH.jpg","genre_ids":[18],"id":510,"original_language":"en","original_title":"One
        Flew Over the Cuckoo''s Nest","overview":"A petty criminal fakes insanity
        to serve his sentence in a mental ward rather than prison. He soon finds himself
        as a leader to the other patients—and an enemy to the cruel, domineering nurse
        who runs the ward.","popularity":31.767,"poster_path":"/3jcbDmRFiQ83drXNOvRDeKHxS0C.jpg","release_date":"1975-11-19","title":"One
        Flew Over the Cuckoo''s Nest","video":false,"vote_average":8.4,"vote_count":9186},{"adult":false,"backdrop_path":"/5p3aTxtUtZHCHwYsuycutmxIhND.jpg","genre_ids":[18,80],"id":598,"original_language":"pt","original_title":"Cidade
        de Deus","overview":"In the slums of Rio, two kids'' paths diverge as one
        struggles to become a photographer and the other a kingpin.","popularity":35.034,"poster_path":"/k7eYdWvhYQyRQoU2TB2A2Xu2TfD.jpg","release_date":"2002-02-05","title":"City
        of God","video":false,"vote_average":8.4,"vote_count":6288},{"adult":false,"backdrop_path":"/bxSBOAD8AuMHYMdW3jso9npAkgt.jpg","genre_ids":[10751,18],"id":667257,"original_language":"es","original_title":"Cosas
        imposibles","overview":"Matilde is a woman who, after the death of her husband
        - a man who constantly abused her - finds her new best friend in Miguel, her
        young, insecure, disoriented and even dealer neighbor","popularity":10.274,"poster_path":"/t2Ew8NZ8Ci2kqmoecZUNQUFDJnQ.jpg","release_date":"2021-06-17","title":"Impossible
        Things","video":false,"vote_average":8.4,"vote_count":327},{"adult":false,"backdrop_path":"/x2IqsMlpbOhS8zIUJfyl1yO4gHF.jpg","genre_ids":[28,12,16,878],"id":324857,"original_language":"en","original_title":"Spider-Man:
        Into the Spider-Verse","overview":"Miles Morales is juggling his life between
        being a high school student and being a spider-man. When Wilson \"Kingpin\"
        Fisk uses a super collider, others from across the Spider-Verse are transported
        to this dimension.","popularity":83.807,"poster_path":"/iiZZdoQBEYBv6id8su7ImL0oCbD.jpg","release_date":"2018-12-14","title":"Spider-Man:
        Into the Spider-Verse","video":false,"vote_average":8.4,"vote_count":12366},{"adult":false,"backdrop_path":"/iuFbU5jiNh8DAxLBGifZCvv3KmB.jpg","genre_ids":[14,16,12],"id":4935,"original_language":"ja","original_title":"ハウルの動く城","overview":"When
        Sophie, a shy young woman, is cursed with an old body by a spiteful witch,
        her only chance of breaking the spell lies with a self-indulgent yet insecure
        young wizard and his companions in his legged, walking castle.","popularity":90.285,"poster_path":"/TkTPELv4kC3u1lkloush8skOjE.jpg","release_date":"2004-09-09","title":"Howl''s
        Moving Castle","video":false,"vote_average":8.4,"vote_count":8013},{"adult":false,"backdrop_path":"/qknxyRgP6UTmwJ4B9tDAmzHMq7u.jpg","genre_ids":[10749,16,14],"id":92321,"original_language":"ja","original_title":"蛍火の杜へ","overview":"One
        hot summer day a little girl gets lost in an enchanted forest of the mountain
        god where spirits reside. A young boy appears before her, but she cannot touch
        him for fear of making him disappear. And so a wondrous adventure awaits...","popularity":0.6,"poster_path":"/mDqzHV8UXWWNpZkoAbKmKX1ZxEE.jpg","release_date":"2011-09-17","title":"Hotarubi
        no Mori e","video":false,"vote_average":8.4,"vote_count":920},{"adult":false,"backdrop_path":"/nC3IjYhUgZWgfKfFX0ygMigFwgc.jpg","genre_ids":[28,18,36],"id":14537,"original_language":"ja","original_title":"切腹","overview":"Down-on-his-luck
        veteran Tsugumo Hanshirō enters the courtyard of the prosperous House of Iyi.
        Unemployed, and with no family, he hopes to find a place to commit seppuku—and
        a worthy second to deliver the coup de grâce in his suicide ritual. The senior
        counselor for the Iyi clan questions the ronin’s resolve and integrity, suspecting
        Hanshirō of seeking charity rather than an honorable end. What follows is
        a pair of interlocking stories which lay bare the difference between honor
        and respect, and promises to examine the legendary foundations of the Samurai
        code.","popularity":23.562,"poster_path":"/w7pWcLaYQkbtRUn99K6ome0DblL.jpg","release_date":"1962-09-15","title":"Harakiri","video":false,"vote_average":8.4,"vote_count":742},{"adult":false,"backdrop_path":"/i1GT0e6Crg6UezT3ibXnMS3pBAd.jpg","genre_ids":[16,18,10749],"id":652837,"original_language":"ja","original_title":"ジョゼと虎と魚たち","overview":"With
        dreams of diving abroad, Tsuneo gets a job assisting Josee, an artist whose
        imagination takes her far beyond her wheelchair. But when the tide turns against
        them, they push each other to places they never thought possible, and inspire
        a love fit for a storybook.","popularity":40.094,"poster_path":"/z1D8xi9x4uEhyFruo7uEHXUMD4K.jpg","release_date":"2020-12-25","title":"Josee,
        the Tiger and the Fish","video":false,"vote_average":8.4,"vote_count":316},{"adult":false,"backdrop_path":"/q5HZvtyqG8Vz39Ee9uTQbLeEml.jpg","genre_ids":[16,18],"id":378064,"original_language":"ja","original_title":"映画
        聲の形","overview":"Shouya Ishida starts bullying the new girl in class, Shouko
        Nishimiya, because she is deaf. But as the teasing continues, the rest of
        the class starts to turn on Shouya for his lack of compassion. When they leave
        elementary school, Shouko and Shouya do not speak to each other again... until
        an older, wiser Shouya, tormented by his past behaviour, decides he must see
        Shouko once more. He wants to atone for his sins, but is it already too late...?","popularity":55.781,"poster_path":"/tuFaWiqX0TXoWu7DGNcmX3UW7sT.jpg","release_date":"2016-09-17","title":"A
        Silent Voice: The Movie","video":false,"vote_average":8.4,"vote_count":3282}],"total_pages":541,"total_results":10803}'
  recorded_at: Fri, 17 Feb 2023 01:08:22 GMT
recorded_with: VCR 6.1.0
